MLB player aging
…
Warning in bs(x = c(-10.2863807112526, -9.28638071125262, -8.28638071125262, :
some 'x' values beyond boundary knots may cause ill-conditioned bases

Code

aggregate_player

# A tibble: 24 × 12
     age   avg   obp   slg   ops age_28_ops centered_age name   spline1  spline2
   <dbl> <dbl> <dbl> <dbl> <dbl>      <dbl>        <dbl> <chr>    <dbl>    <dbl>
 1    19 0.280 0.370 0.495 0.865      1.04        -10.3  <NA>  -0.144    6.08e-3
 2    20 0.279 0.352 0.468 0.820      0.785        -9.29 <NA>  -0.00178  1.05e-6
 3    21 0.271 0.337 0.440 0.778      0.806        -8.29 <NA>   0.118    5.28e-3
 4    22 0.277 0.341 0.456 0.797      0.798        -7.29 <NA>   0.216    2.04e-2
 5    23 0.265 0.329 0.433 0.761      0.780        -6.29 <NA>   0.295    4.40e-2
 6    24 0.264 0.330 0.432 0.761      0.776        -5.29 <NA>   0.355    7.44e-2
 7    25 0.267 0.334 0.442 0.776      0.770        -4.29 <NA>   0.399    1.10e-1
 8    26 0.268 0.335 0.444 0.779      0.771        -3.29 <NA>   0.427    1.50e-1
 9    27 0.269 0.336 0.447 0.783      0.769        -2.29 <NA>   0.442    1.93e-1
10    28 0.265 0.334 0.438 0.772      0.772        -1.29 <NA>   0.444    2.36e-1
# ℹ 14 more rows
# ℹ 2 more variables: spline3 <dbl>, pred_ops <dbl>
Code

aggregate_player |> 
  ggplot() + 
  aes(age, ops) + 
  geom_line()

Code

grouped_hit |> 
  slice_max(player_contribution, n = 5) |> 
  ungroup() |> 
  select(age, name, player_contribution)

# A tibble: 116 × 3
     age name                  player_contribution
   <dbl> <chr>                               <dbl>
 1    19 Bryce Harper                       0.547 
 2    19 Juan Soto                          0.453 
 3    20 Manny Machado                      0.102 
 4    20 Juan Soto                          0.0949
 5    20 Mike Trout                         0.0920
 6    20 Jason Heyward                      0.0897
 7    20 Vladimir Guerrero Jr.              0.0740
 8    21 Mike Trout                         0.0559
 9    21 Starlin Castro                     0.0559
10    21 Ronald Acuña Jr.                   0.0559
# ℹ 106 more rows
…
